Lab 3/simulation/qsim/g19_lab3.msim.vcd
$comment
	File created using the following command:
		vcd file g19_lab3.msim.vcd -direction
$end
$date
	Thu Oct 31 12:28:38 2013
$end
$version
	ModelSim Version 10.1d
$end
$timescale
	1ps
$end
$scope module g19_Envelope_vlg_vec_tst $end
$var reg 1 ! clk $end
$var reg 8 " FALL_RATE [7:0] $end
$var reg 1 # GATE $end
$var reg 1 $ reset $end
$var reg 8 % RISE_RATE [7:0] $end
$var wire 1 & ENVELOP [23] $end
$var wire 1 ' ENVELOP [22] $end
$var wire 1 ( ENVELOP [21] $end
$var wire 1 ) ENVELOP [20] $end
$var wire 1 * ENVELOP [19] $end
$var wire 1 + ENVELOP [18] $end
$var wire 1 , ENVELOP [17] $end
$var wire 1 - ENVELOP [16] $end
$var wire 1 . ENVELOP [15] $end
$var wire 1 / ENVELOP [14] $end
$var wire 1 0 ENVELOP [13] $end
$var wire 1 1 ENVELOP [12] $end
$var wire 1 2 ENVELOP [11] $end
$var wire 1 3 ENVELOP [10] $end
$var wire 1 4 ENVELOP [9] $end
$var wire 1 5 ENVELOP [8] $end
$var wire 1 6 ENVELOP [7] $end
$var wire 1 7 ENVELOP [6] $end
$var wire 1 8 ENVELOP [5] $end
$var wire 1 9 ENVELOP [4] $end
$var wire 1 : ENVELOP [3] $end
$var wire 1 ; ENVELOP [2] $end
$var wire 1 < ENVELOP [1] $end
$var wire 1 = ENVELOP [0] $end
$var wire 1 > UPDATE_ENABLE $end
$var wire 1 ? sampler $end
$scope module i1 $end
$var wire 1 @ gnd $end
$var wire 1 A vcc $end
$var wire 1 B unknown $end
$var tri1 1 C devclrn $end
$var tri1 1 D devpor $end
$var tri1 1 E devoe $end
$var wire 1 F lpm_counter_component|auto_generated|counter_comb_bita2~combout $end
$var wire 1 G lpm_counter_component|auto_generated|counter_comb_bita5~combout $end
$var wire 1 H lpm_counter_component|auto_generated|counter_comb_bita9~combout $end
$var wire 1 I lpm_mult_component|auto_generated|mac_out2~0 $end
$var wire 1 J lpm_mult_component|auto_generated|mac_out2~1 $end
$var wire 1 K lpm_add_sub_component|auto_generated|_~3_combout $end
$var wire 1 L lpm_add_sub_component|auto_generated|_~6_combout $end
$var wire 1 M lpm_add_sub_component|auto_generated|_~9_combout $end
$var wire 1 N lpm_add_sub_component|auto_generated|_~10_combout $end
$var wire 1 O lpm_add_sub_component|auto_generated|_~12_combout $end
$var wire 1 P lpm_add_sub_component|auto_generated|_~13_combout $end
$var wire 1 Q lpm_sub_component|auto_generated|pipeline_dffe[4]~4_combout $end
$var wire 1 R clk~combout $end
$var wire 1 S clk~clkctrl_outclk $end
$var wire 1 T ~GND~combout $end
$var wire 1 U GATE~combout $end
$var wire 1 V lpm_add_sub_component|auto_generated|pipeline_dffe[16]~59 $end
$var wire 1 W lpm_add_sub_component|auto_generated|pipeline_dffe[17]~60_combout $end
$var wire 1 X reset~combout $end
$var wire 1 Y lpm_counter_component|auto_generated|counter_comb_bita0~combout $end
$var wire 1 Z lpm_counter_component|auto_generated|counter_comb_bita0~COUT $end
$var wire 1 [ lpm_counter_component|auto_generated|counter_comb_bita1~combout $end
$var wire 1 \ Equal0~2_combout $end
$var wire 1 ] lpm_counter_component|auto_generated|counter_comb_bita1~COUT $end
$var wire 1 ^ lpm_counter_component|auto_generated|counter_comb_bita2~COUT $end
$var wire 1 _ lpm_counter_component|auto_generated|counter_comb_bita3~combout $end
$var wire 1 ` lpm_counter_component|auto_generated|counter_comb_bita3~COUT $end
$var wire 1 a lpm_counter_component|auto_generated|counter_comb_bita4~COUT $end
$var wire 1 b lpm_counter_component|auto_generated|counter_comb_bita5~COUT $end
$var wire 1 c lpm_counter_component|auto_generated|counter_comb_bita6~combout $end
$var wire 1 d lpm_counter_component|auto_generated|counter_comb_bita4~combout $end
$var wire 1 e Equal0~1_combout $end
$var wire 1 f lpm_counter_component|auto_generated|counter_comb_bita6~COUT $end
$var wire 1 g lpm_counter_component|auto_generated|counter_comb_bita7~COUT $end
$var wire 1 h lpm_counter_component|auto_generated|counter_comb_bita8~combout $end
$var wire 1 i lpm_counter_component|auto_generated|counter_comb_bita7~combout $end
$var wire 1 j lpm_counter_component|auto_generated|counter_comb_bita8~COUT $end
$var wire 1 k lpm_counter_component|auto_generated|counter_comb_bita9~COUT $end
$var wire 1 l lpm_counter_component|auto_generated|counter_comb_bita10~combout $end
$var wire 1 m Equal0~0_combout $end
$var wire 1 n Equal0~3_combout $end
$var wire 1 o lpm_sub_component|auto_generated|pipeline_dffe[1]~1_combout $end
$var wire 1 p Gate1|lpm_mux_component|auto_generated|result_node[1]~1_combout $end
$var wire 1 q lpm_add_sub_component|auto_generated|pipeline_dffe[17]~61 $end
$var wire 1 r lpm_add_sub_component|auto_generated|pipeline_dffe[18]~62_combout $end
$var wire 1 s lpm_sub_component|auto_generated|pipeline_dffe[2]~2_combout $end
$var wire 1 t Gate1|lpm_mux_component|auto_generated|result_node[2]~2_combout $end
$var wire 1 u lpm_add_sub_component|auto_generated|pipeline_dffe[18]~63 $end
$var wire 1 v lpm_add_sub_component|auto_generated|pipeline_dffe[19]~64_combout $end
$var wire 1 w lpm_sub_component|auto_generated|pipeline_dffe[3]~3_combout $end
$var wire 1 x Gate1|lpm_mux_component|auto_generated|result_node[3]~3_combout $end
$var wire 1 y lpm_add_sub_component|auto_generated|pipeline_dffe[19]~65 $end
$var wire 1 z lpm_add_sub_component|auto_generated|pipeline_dffe[20]~66_combout $end
$var wire 1 { Gate1|lpm_mux_component|auto_generated|result_node[4]~4_combout $end
$var wire 1 | lpm_add_sub_component|auto_generated|pipeline_dffe[20]~67 $end
$var wire 1 } lpm_add_sub_component|auto_generated|pipeline_dffe[21]~68_combout $end
$var wire 1 ~ lpm_sub_component|auto_generated|pipeline_dffe[5]~5_combout $end
$var wire 1 !! Gate1|lpm_mux_component|auto_generated|result_node[5]~5_combout $end
$var wire 1 "! lpm_add_sub_component|auto_generated|pipeline_dffe[21]~69 $end
$var wire 1 #! lpm_add_sub_component|auto_generated|pipeline_dffe[22]~70_combout $end
$var wire 1 $! lpm_sub_component|auto_generated|pipeline_dffe[6]~6_combout $end
$var wire 1 %! Gate1|lpm_mux_component|auto_generated|result_node[6]~6_combout $end
$var wire 1 &! lpm_add_sub_component|auto_generated|pipeline_dffe[22]~71 $end
$var wire 1 '! lpm_add_sub_component|auto_generated|pipeline_dffe[23]~72_combout $end
$var wire 1 (! lpm_sub_component|auto_generated|pipeline_dffe[7]~7_combout $end
$var wire 1 )! Gate1|lpm_mux_component|auto_generated|result_node[7]~7_combout $end
$var wire 1 *! Gate2|lpm_mux_component|auto_generated|result_node[0]~0_combout $end
$var wire 1 +! Gate2|lpm_mux_component|auto_generated|result_node[1]~1_combout $end
$var wire 1 ,! Gate2|lpm_mux_component|auto_generated|result_node[2]~2_combout $end
$var wire 1 -! Gate2|lpm_mux_component|auto_generated|result_node[3]~3_combout $end
$var wire 1 .! Gate2|lpm_mux_component|auto_generated|result_node[4]~4_combout $end
$var wire 1 /! Gate2|lpm_mux_component|auto_generated|result_node[5]~5_combout $end
$var wire 1 0! Gate2|lpm_mux_component|auto_generated|result_node[6]~6_combout $end
$var wire 1 1! Gate2|lpm_mux_component|auto_generated|result_node[7]~7_combout $end
$var wire 1 2! lpm_mult_component|auto_generated|mac_mult1~DATAOUT1 $end
$var wire 1 3! lpm_mult_component|auto_generated|mac_mult1~DATAOUT2 $end
$var wire 1 4! lpm_mult_component|auto_generated|mac_mult1~DATAOUT3 $end
$var wire 1 5! lpm_mult_component|auto_generated|mac_mult1~DATAOUT4 $end
$var wire 1 6! lpm_mult_component|auto_generated|mac_mult1~DATAOUT5 $end
$var wire 1 7! lpm_mult_component|auto_generated|mac_mult1~DATAOUT6 $end
$var wire 1 8! lpm_mult_component|auto_generated|mac_mult1~DATAOUT7 $end
$var wire 1 9! lpm_mult_component|auto_generated|mac_mult1~DATAOUT8 $end
$var wire 1 :! lpm_mult_component|auto_generated|mac_mult1~DATAOUT9 $end
$var wire 1 ;! lpm_mult_component|auto_generated|mac_mult1~DATAOUT10 $end
$var wire 1 <! lpm_mult_component|auto_generated|mac_mult1~DATAOUT11 $end
$var wire 1 =! lpm_mult_component|auto_generated|mac_mult1~DATAOUT12 $end
$var wire 1 >! lpm_mult_component|auto_generated|mac_mult1~DATAOUT13 $end
$var wire 1 ?! lpm_mult_component|auto_generated|mac_mult1~DATAOUT14 $end
$var wire 1 @! lpm_mult_component|auto_generated|mac_mult1~DATAOUT15 $end
$var wire 1 A! lpm_mult_component|auto_generated|mac_mult1~0 $end
$var wire 1 B! lpm_mult_component|auto_generated|mac_mult1~1 $end
$var wire 1 C! lpm_add_sub_component|auto_generated|_~15_combout $end
$var wire 1 D! lpm_add_sub_component|auto_generated|_~14_combout $end
$var wire 1 E! lpm_add_sub_component|auto_generated|_~11_combout $end
$var wire 1 F! lpm_add_sub_component|auto_generated|_~8_combout $end
$var wire 1 G! lpm_add_sub_component|auto_generated|_~7_combout $end
$var wire 1 H! lpm_add_sub_component|auto_generated|_~5_combout $end
$var wire 1 I! lpm_add_sub_component|auto_generated|_~4_combout $end
$var wire 1 J! lpm_add_sub_component|auto_generated|_~2_combout $end
$var wire 1 K! lpm_add_sub_component|auto_generated|_~1_combout $end
$var wire 1 L! lpm_add_sub_component|auto_generated|pipeline_dffe[0]~25_cout $end
$var wire 1 M! lpm_add_sub_component|auto_generated|pipeline_dffe[0]~27 $end
$var wire 1 N! lpm_add_sub_component|auto_generated|pipeline_dffe[1]~29 $end
$var wire 1 O! lpm_add_sub_component|auto_generated|pipeline_dffe[2]~31 $end
$var wire 1 P! lpm_add_sub_component|auto_generated|pipeline_dffe[3]~32_combout $end
$var wire 1 Q! lpm_add_sub_component|auto_generated|pipeline_dffe[3]~33 $end
$var wire 1 R! lpm_add_sub_component|auto_generated|pipeline_dffe[4]~35 $end
$var wire 1 S! lpm_add_sub_component|auto_generated|pipeline_dffe[5]~37 $end
$var wire 1 T! lpm_add_sub_component|auto_generated|pipeline_dffe[6]~38_combout $end
$var wire 1 U! lpm_add_sub_component|auto_generated|pipeline_dffe[6]~39 $end
$var wire 1 V! lpm_add_sub_component|auto_generated|pipeline_dffe[7]~41 $end
$var wire 1 W! lpm_add_sub_component|auto_generated|pipeline_dffe[8]~43 $end
$var wire 1 X! lpm_add_sub_component|auto_generated|pipeline_dffe[9]~44_combout $end
$var wire 1 Y! lpm_add_sub_component|auto_generated|pipeline_dffe[9]~45 $end
$var wire 1 Z! lpm_add_sub_component|auto_generated|pipeline_dffe[10]~46_combout $end
$var wire 1 [! lpm_add_sub_component|auto_generated|pipeline_dffe[10]~47 $end
$var wire 1 \! lpm_add_sub_component|auto_generated|pipeline_dffe[11]~49 $end
$var wire 1 ]! lpm_add_sub_component|auto_generated|pipeline_dffe[12]~50_combout $end
$var wire 1 ^! lpm_add_sub_component|auto_generated|pipeline_dffe[12]~51 $end
$var wire 1 _! lpm_add_sub_component|auto_generated|pipeline_dffe[13]~52_combout $end
$var wire 1 `! lpm_add_sub_component|auto_generated|pipeline_dffe[13]~53 $end
$var wire 1 a! lpm_add_sub_component|auto_generated|pipeline_dffe[14]~55 $end
$var wire 1 b! lpm_add_sub_component|auto_generated|pipeline_dffe[15]~57 $end
$var wire 1 c! lpm_add_sub_component|auto_generated|pipeline_dffe[16]~58_combout $end
$var wire 1 d! lpm_sub_component|auto_generated|pipeline_dffe[0]~0_combout $end
$var wire 1 e! Gate1|lpm_mux_component|auto_generated|result_node[0]~0_combout $end
$var wire 1 f! lpm_mult_component|auto_generated|mac_mult1~dataout $end
$var wire 1 g! lpm_add_sub_component|auto_generated|_~0_combout $end
$var wire 1 h! lpm_add_sub_component|auto_generated|pipeline_dffe[0]~26_combout $end
$var wire 1 i! lpm_add_sub_component|auto_generated|pipeline_dffe[1]~28_combout $end
$var wire 1 j! lpm_add_sub_component|auto_generated|pipeline_dffe[2]~30_combout $end
$var wire 1 k! lpm_add_sub_component|auto_generated|pipeline_dffe[4]~34_combout $end
$var wire 1 l! lpm_add_sub_component|auto_generated|pipeline_dffe[5]~36_combout $end
$var wire 1 m! lpm_add_sub_component|auto_generated|pipeline_dffe[7]~40_combout $end
$var wire 1 n! lpm_add_sub_component|auto_generated|pipeline_dffe[8]~42_combout $end
$var wire 1 o! lpm_add_sub_component|auto_generated|pipeline_dffe[11]~48_combout $end
$var wire 1 p! lpm_add_sub_component|auto_generated|pipeline_dffe[14]~54_combout $end
$var wire 1 q! lpm_add_sub_component|auto_generated|pipeline_dffe[15]~56_combout $end
$var wire 1 r! lpm_add_sub_component|auto_generated|pipeline_dffe [23] $end
$var wire 1 s! lpm_add_sub_component|auto_generated|pipeline_dffe [22] $end
$var wire 1 t! lpm_add_sub_component|auto_generated|pipeline_dffe [21] $end
$var wire 1 u! lpm_add_sub_component|auto_generated|pipeline_dffe [20] $end
$var wire 1 v! lpm_add_sub_component|auto_generated|pipeline_dffe [19] $end
$var wire 1 w! lpm_add_sub_component|auto_generated|pipeline_dffe [18] $end
$var wire 1 x! lpm_add_sub_component|auto_generated|pipeline_dffe [17] $end
$var wire 1 y! lpm_add_sub_component|auto_generated|pipeline_dffe [16] $end
$var wire 1 z! lpm_add_sub_component|auto_generated|pipeline_dffe [15] $end
$var wire 1 {! lpm_add_sub_component|auto_generated|pipeline_dffe [14] $end
$var wire 1 |! lpm_add_sub_component|auto_generated|pipeline_dffe [13] $end
$var wire 1 }! lpm_add_sub_component|auto_generated|pipeline_dffe [12] $end
$var wire 1 ~! lpm_add_sub_component|auto_generated|pipeline_dffe [11] $end
$var wire 1 !" lpm_add_sub_component|auto_generated|pipeline_dffe [10] $end
$var wire 1 "" lpm_add_sub_component|auto_generated|pipeline_dffe [9] $end
$var wire 1 #" lpm_add_sub_component|auto_generated|pipeline_dffe [8] $end
$var wire 1 $" lpm_add_sub_component|auto_generated|pipeline_dffe [7] $end
$var wire 1 %" lpm_add_sub_component|auto_generated|pipeline_dffe [6] $end
$var wire 1 &" lpm_add_sub_component|auto_generated|pipeline_dffe [5] $end
$var wire 1 '" lpm_add_sub_component|auto_generated|pipeline_dffe [4] $end
$var wire 1 (" lpm_add_sub_component|auto_generated|pipeline_dffe [3] $end
$var wire 1 )" lpm_add_sub_component|auto_generated|pipeline_dffe [2] $end
$var wire 1 *" lpm_add_sub_component|auto_generated|pipeline_dffe [1] $end
$var wire 1 +" lpm_add_sub_component|auto_generated|pipeline_dffe [0] $end
$var wire 1 ," lpm_ff_component|dffs [23] $end
$var wire 1 -" lpm_ff_component|dffs [22] $end
$var wire 1 ." lpm_ff_component|dffs [21] $end
$var wire 1 /" lpm_ff_component|dffs [20] $end
$var wire 1 0" lpm_ff_component|dffs [19] $end
$var wire 1 1" lpm_ff_component|dffs [18] $end
$var wire 1 2" lpm_ff_component|dffs [17] $end
$var wire 1 3" lpm_ff_component|dffs [16] $end
$var wire 1 4" lpm_ff_component|dffs [15] $end
$var wire 1 5" lpm_ff_component|dffs [14] $end
$var wire 1 6" lpm_ff_component|dffs [13] $end
$var wire 1 7" lpm_ff_component|dffs [12] $end
$var wire 1 8" lpm_ff_component|dffs [11] $end
$var wire 1 9" lpm_ff_component|dffs [10] $end
$var wire 1 :" lpm_ff_component|dffs [9] $end
$var wire 1 ;" lpm_ff_component|dffs [8] $end
$var wire 1 <" lpm_ff_component|dffs [7] $end
$var wire 1 =" lpm_ff_component|dffs [6] $end
$var wire 1 >" lpm_ff_component|dffs [5] $end
$var wire 1 ?" lpm_ff_component|dffs [4] $end
$var wire 1 @" lpm_ff_component|dffs [3] $end
$var wire 1 A" lpm_ff_component|dffs [2] $end
$var wire 1 B" lpm_ff_component|dffs [1] $end
$var wire 1 C" lpm_ff_component|dffs [0] $end
$var wire 1 D" lpm_sub_component|auto_generated|pipeline_dffe [7] $end
$var wire 1 E" lpm_sub_component|auto_generated|pipeline_dffe [6] $end
$var wire 1 F" lpm_sub_component|auto_generated|pipeline_dffe [5] $end
$var wire 1 G" lpm_sub_component|auto_generated|pipeline_dffe [4] $end
$var wire 1 H" lpm_sub_component|auto_generated|pipeline_dffe [3] $end
$var wire 1 I" lpm_sub_component|auto_generated|pipeline_dffe [2] $end
$var wire 1 J" lpm_sub_component|auto_generated|pipeline_dffe [1] $end
$var wire 1 K" lpm_sub_component|auto_generated|pipeline_dffe [0] $end
$var wire 1 L" FALL_RATE~combout [7] $end
$var wire 1 M" FALL_RATE~combout [6] $end
$var wire 1 N" FALL_RATE~combout [5] $end
$var wire 1 O" FALL_RATE~combout [4] $end
$var wire 1 P" FALL_RATE~combout [3] $end
$var wire 1 Q" FALL_RATE~combout [2] $end
$var wire 1 R" FALL_RATE~combout [1] $end
$var wire 1 S" FALL_RATE~combout [0] $end
$var wire 1 T" RISE_RATE~combout [7] $end
$var wire 1 U" RISE_RATE~combout [6] $end
$var wire 1 V" RISE_RATE~combout [5] $end
$var wire 1 W" RISE_RATE~combout [4] $end
$var wire 1 X" RISE_RATE~combout [3] $end
$var wire 1 Y" RISE_RATE~combout [2] $end
$var wire 1 Z" RISE_RATE~combout [1] $end
$var wire 1 [" RISE_RATE~combout [0] $end
$var wire 1 \" lpm_counter_component|auto_generated|safe_q [10] $end
$var wire 1 ]" lpm_counter_component|auto_generated|safe_q [9] $end
$var wire 1 ^" lpm_counter_component|auto_generated|safe_q [8] $end
$var wire 1 _" lpm_counter_component|auto_generated|safe_q [7] $end
$var wire 1 `" lpm_counter_component|auto_generated|safe_q [6] $end
$var wire 1 a" lpm_counter_component|auto_generated|safe_q [5] $end
$var wire 1 b" lpm_counter_component|auto_generated|safe_q [4] $end
$var wire 1 c" lpm_counter_component|auto_generated|safe_q [3] $end
$var wire 1 d" lpm_counter_component|auto_generated|safe_q [2] $end
$var wire 1 e" lpm_counter_component|auto_generated|safe_q [1] $end
$var wire 1 f" lpm_counter_component|auto_generated|safe_q [0] $end
$var wire 1 g" lpm_mult_component|auto_generated|result [23] $end
$var wire 1 h" lpm_mult_component|auto_generated|result [22] $end
$var wire 1 i" lpm_mult_component|auto_generated|result [21] $end
$var wire 1 j" lpm_mult_component|auto_generated|result [20] $end
$var wire 1 k" lpm_mult_component|auto_generated|result [19] $end
$var wire 1 l" lpm_mult_component|auto_generated|result [18] $end
$var wire 1 m" lpm_mult_component|auto_generated|result [17] $end
$var wire 1 n" lpm_mult_component|auto_generated|result [16] $end
$var wire 1 o" lpm_mult_component|auto_generated|result [15] $end
$var wire 1 p" lpm_mult_component|auto_generated|result [14] $end
$var wire 1 q" lpm_mult_component|auto_generated|result [13] $end
$var wire 1 r" lpm_mult_component|auto_generated|result [12] $end
$var wire 1 s" lpm_mult_component|auto_generated|result [11] $end
$var wire 1 t" lpm_mult_component|auto_generated|result [10] $end
$var wire 1 u" lpm_mult_component|auto_generated|result [9] $end
$var wire 1 v" lpm_mult_component|auto_generated|result [8] $end
$var wire 1 w" lpm_mult_component|auto_generated|result [7] $end
$var wire 1 x" lpm_mult_component|auto_generated|result [6] $end
$var wire 1 y" lpm_mult_component|auto_generated|result [5] $end
$var wire 1 z" lpm_mult_component|auto_generated|result [4] $end
$var wire 1 {" lpm_mult_component|auto_generated|result [3] $end
$var wire 1 |" lpm_mult_component|auto_generated|result [2] $end
$var wire 1 }" lpm_mult_component|auto_generated|result [1] $end
$var wire 1 ~" lpm_mult_component|auto_generated|result [0] $end
$var wire 1 !# lpm_mult_component|auto_generated|mac_out2_DATAOUT_bus [17] $end
$var wire 1 "# lpm_mult_component|auto_generated|mac_out2_DATAOUT_bus [16] $end
$var wire 1 ## lpm_mult_component|auto_generated|mac_out2_DATAOUT_bus [15] $end
$var wire 1 $# lpm_mult_component|auto_generated|mac_out2_DATAOUT_bus [14] $end
$var wire 1 %# lpm_mult_component|auto_generated|mac_out2_DATAOUT_bus [13] $end
$var wire 1 &# lpm_mult_component|auto_generated|mac_out2_DATAOUT_bus [12] $end
$var wire 1 '# lpm_mult_component|auto_generated|mac_out2_DATAOUT_bus [11] $end
$var wire 1 (# lpm_mult_component|auto_generated|mac_out2_DATAOUT_bus [10] $end
$var wire 1 )# lpm_mult_component|auto_generated|mac_out2_DATAOUT_bus [9] $end
$var wire 1 *# lpm_mult_component|auto_generated|mac_out2_DATAOUT_bus [8] $end
$var wire 1 +# lpm_mult_component|auto_generated|mac_out2_DATAOUT_bus [7] $end
$var wire 1 ,# lpm_mult_component|auto_generated|mac_out2_DATAOUT_bus [6] $end
$var wire 1 -# lpm_mult_component|auto_generated|mac_out2_DATAOUT_bus [5] $end
$var wire 1 .# lpm_mult_component|auto_generated|mac_out2_DATAOUT_bus [4] $end
$var wire 1 /# lpm_mult_component|auto_generated|mac_out2_DATAOUT_bus [3] $end
$var wire 1 0# lpm_mult_component|auto_generated|mac_out2_DATAOUT_bus [2] $end
$var wire 1 1# lpm_mult_component|auto_generated|mac_out2_DATAOUT_bus [1] $end
$var wire 1 2# lpm_mult_component|auto_generated|mac_out2_DATAOUT_bus [0] $end
$var wire 1 3# lpm_mult_component|auto_generated|mac_mult1_DATAOUT_bus [17] $end
$var wire 1 4# lpm_mult_component|auto_generated|mac_mult1_DATAOUT_bus [16] $end
$var wire 1 5# lpm_mult_component|auto_generated|mac_mult1_DATAOUT_bus [15] $end
$var wire 1 6# lpm_mult_component|auto_generated|mac_mult1_DATAOUT_bus [14] $end
$var wire 1 7# lpm_mult_component|auto_generated|mac_mult1_DATAOUT_bus [13] $end
$var wire 1 8# lpm_mult_component|auto_generated|mac_mult1_DATAOUT_bus [12] $end
$var wire 1 9# lpm_mult_component|auto_generated|mac_mult1_DATAOUT_bus [11] $end
$var wire 1 :# lpm_mult_component|auto_generated|mac_mult1_DATAOUT_bus [10] $end
$var wire 1 ;# lpm_mult_component|auto_generated|mac_mult1_DATAOUT_bus [9] $end
$var wire 1 <# lpm_mult_component|auto_generated|mac_mult1_DATAOUT_bus [8] $end
$var wire 1 =# lpm_mult_component|auto_generated|mac_mult1_DATAOUT_bus [7] $end
$var wire 1 ># lpm_mult_component|auto_generated|mac_mult1_DATAOUT_bus [6] $end
$var wire 1 ?# lpm_mult_component|auto_generated|mac_mult1_DATAOUT_bus [5] $end
$var wire 1 @# lpm_mult_component|auto_generated|mac_mult1_DATAOUT_bus [4] $end
$var wire 1 A# lpm_mult_component|auto_generated|mac_mult1_DATAOUT_bus [3] $end
$var wire 1 B# lpm_mult_component|auto_generated|mac_mult1_DATAOUT_bus [2] $end
$var wire 1 C# lpm_mult_component|auto_generated|mac_mult1_DATAOUT_bus [1] $end
$var wire 1 D# lpm_mult_component|auto_generated|mac_mult1_DATAOUT_bus [0] $end
$upscope $end
$upscope $end
$enddefinitions $end
#0
$dumpvars
0!
b1010 "
1#
0$
b110010 %
x=
x<
x;
x:
x9
x8
x7
x6
x5
x4
x3
x2
x1
x0
x/
x.
x-
x,
x+
x*
x)
x(
x'
x&
x>
x?
0@
1A
xB
1C
1D
1E
xF
xG
xH
0I
0J
xK
xL
xM
xN
xO
xP
xQ
0R
xS
0T
1U
xV
xW
0X
xY
xZ
x[
x\
x]
x^
x_
x`
xa
xb
xc
xd
xe
xf
xg
xh
xi
xj
xk
xl
xm
xn
xo
xp
xq
xr
xs
xt
xu
xv
xw
xx
xy
xz
x{
x|
x}
x~
x!!
x"!
x#!
x$!
x%!
x&!
x'!
x(!
x)!
x*!
x+!
x,!
x-!
x.!
x/!
x0!
x1!
x2!
x3!
x4!
x5!
x6!
x7!
x8!
x9!
x:!
x;!
x<!
x=!
x>!
x?!
x@!
xA!
xB!
xC!
xD!
xE!
xF!
xG!
xH!
xI!
xJ!
xK!
xL!
xM!
xN!
xO!
xP!
xQ!
xR!
xS!
xT!
xU!
xV!
xW!
xX!
xY!
xZ!
x[!
x\!
x]!
x^!
x_!
x`!
xa!
xb!
xc!
xd!
xe!
xf!
xg!
xh!
xi!
xj!
xk!
xl!
xm!
xn!
xo!
xp!
xq!
0+"
0*"
0)"
0("
0'"
0&"
0%"
0$"
0#"
0""
0!"
0~!
0}!
0|!
0{!
0z!
0y!
0x!
0w!
0v!
0u!
0t!
0s!
0r!
0C"
0B"
0A"
0@"
0?"
0>"
0="
0<"
0;"
0:"
09"
08"
07"
06"
05"
04"
03"
02"
01"
00"
0/"
0."
0-"
0,"
0K"
0J"
0I"
0H"
0G"
0F"
0E"
0D"
0S"
1R"
0Q"
1P"
0O"
0N"
0M"
0L"
0["
1Z"
0Y"
0X"
1W"
1V"
0U"
0T"
xf"
xe"
xd"
xc"
xb"
xa"
x`"
x_"
x^"
x]"
x\"
0~"
0}"
0|"
0{"
0z"
0y"
0x"
0w"
0v"
0u"
0t"
0s"
0r"
0q"
0p"
0o"
zn"
zm"
zl"
zk"
zj"
zi"
zh"
zg"
02#
01#
00#
0/#
0.#
0-#
0,#
0+#
0*#
0)#
0(#
0'#
0&#
0%#
0$#
0##
0"#
0!#
xD#
xC#
xB#
xA#
x@#
x?#
x>#
x=#
x<#
x;#
x:#
x9#
x8#
x7#
x6#
x5#
x4#
x3#
$end
#238
0S
#243
0]"
0a"
0d"
0f"
0e"
0c"
0`"
0b"
0^"
0_"
0\"
#527
0e!
#531
0%!
#533
1d!
#534
0)!
#535
0!!
#537
0p
#538
1$!
#542
1Q
#544
1o
1s
#566
0t
#686
1w
#693
1(!
#695
1~
#702
0x
#925
0{
#1078
1Y
#1090
1m
#1095
1e
#1096
1\
#1112
1Z
#1192
0]
#1272
1^
#1352
0`
#1432
1a
#1512
0b
#1570
1[
#1650
1F
#1686
1f
#1729
1n
#1730
1_
#1766
0g
#1810
1d
#1846
1j
#1890
1G
#1926
0k
#1970
1c
#2144
1i
#2224
1h
#2304
1H
#2384
1l
#2631
03#
04#
05#
06#
07#
08#
09#
0:#
0;#
0<#
0=#
0>#
0?#
0@#
0A#
0B#
0C#
0D#
0@!
0?!
0>!
0=!
0<!
0;!
0:!
09!
08!
07!
06!
05!
04!
03!
02!
0f!
0B!
0A!
#3782
0-
#3825
0.
#3965
09
#4032
0+
#4041
05
#4060
0'
#4063
0/
01
#4078
08
0;
#4298
0,
#4304
0*
#4305
0)
#4322
0(
#4325
0&
#4347
07
#4369
06
#4370
02
#4401
0<
#4427
04
#4660
00
#4686
0=
#4732
03
#4746
0:
#5000
1!
0?
#5503
1>
#5558
00!
#5565
0*!
#5845
1.!
#5861
1/!
#5863
1+!
#5868
0-!
#6003
01!
#6016
0,!
#6026
1R
#6264
1S
#6579
1G!
#6581
1M
#6582
1H!
#6583
1D!
#6584
1L
1K!
#6585
1N
1E!
#6586
1J!
#6609
0L!
#6665
1&!
0"!
#6666
1|
0y
0q
#6668
1V
#6689
1M!
#6695
1O
#6766
1u
#6769
0N!
#6817
1C!
#6818
1P
#6819
1F!
1I!
#6820
1g!
#6822
1K
#6943
1O!
#7023
0Q!
#7103
1R!
#7123
0#!
0'!
#7124
0r
0z
0}
#7126
0W
#7224
0v
#7544
0S!
#7555
0V!
#7561
0l!
#7636
0i!
#7640
0Y!
0j!
#7643
1U!
#7737
1[!
#7753
1^!
#7842
1W!
#7863
0k!
#7872
0h!
#7909
0P!
#7920
1a!
#7925
0\!
#8002
0T!
#8013
0n!
#8098
0Z!
#8101
0m!
#8132
x("
x%"
x""
x!"
x+"
x'"
x$"
x#"
#8134
1G"
1J"
1I"
1H"
1F"
1E"
1D"
x}!
x|!
xy!
x~!
x{!
xz!
#8135
1\"
#8137
1K"
#8175
0b!
#8191
0`!
#8195
0o!
#8211
0_!
#8300
0X!
#8378
0q!
#8383
0]!
#8664
1e!
#8665
1%!
#8668
1)!
#8669
1!!
#8671
1p
#8685
0l
0m
#8700
1t
#8836
1x
#9013
xT!
#9015
x_!
x]!
#9017
xZ!
xX!
#9056
xh!
#9059
1{
#9060
xm!
#9155
0n
#9274
xP!
#9297
xn!
#9300
xk!
#9305
xq!
xo!
#10000
0!
1?
#10886
x3#
x4#
x5#
x6#
x7#
x8#
x9#
x:#
x;#
x<#
x=#
x>#
x?#
x@#
xA#
xB#
xC#
xD#
x@!
x?!
x>!
x=!
x<!
x;!
x:!
x9!
x8!
x7!
x6!
x5!
x4!
x3!
x2!
xf!
xB!
xA!
#11026
0R
#11264
0S
#12929
0>
#15000
1!
0?
#16026
1R
#16264
1S
#18135
1]"
1a"
1d"
1f"
1e"
1c"
1`"
1b"
1^"
1_"
0\"
#18685
1l
#18687
0e
#18689
0\
#18970
0Y
#19002
0h
0c
#19004
0Z
#19006
1]
1`
0j
#19032
0_
#19041
1g
#19042
1k
#19045
0^
#19046
1b
0a
#19069
0i
#19107
0f
x!#
x"#
x##
x$#
x%#
x&#
x'#
x(#
x)#
x*#
x+#
x,#
x-#
x.#
x/#
x0#
x1#
x2#
xo"
xp"
xq"
xr"
xs"
xt"
xu"
xv"
xw"
xx"
xy"
xz"
x{"
x|"
x}"
x~"
xJ
xI
#19499
1h
#19500
0l
#19503
1_
#19504
1c
#19565
1i
#19697
xD!
#19764
xK!
#19769
xJ!
#19771
xH!
#19842
xI!
#19910
xK
#19918
xg!
#20000
0!
1?
#20057
xE!
#20059
xM
#20063
xL
xN
#20064
xG!
#20162
xC!
#20217
xF!
#20221
xP
#20625
xO
#20759
xl!
#20785
03#
04#
15#
16#
07#
08#
09#
1:#
1;#
1<#
0=#
0>#
1?#
1@#
1A#
0B#
0C#
0D#
0@!
0?!
1>!
1=!
0<!
0;!
0:!
19!
18!
17!
06!
05!
14!
13!
12!
0f!
0B!
0A!
#20816
xi!
#20823
xj!
#20860
xR!
#20940
xS!
#20944
xM!
#20973
xQ!
#21024
xN!
#21026
0R
#21034
xa!
#21040
xV!
#21118
xY!
#21122
xU!
#21198
xO!
#21215
x[!
#21240
xW!
#21264
0S
